Chapter 3 Data exploration | Air pollution in Barcelona
…
Eixample_PM10_day_2018 %>% summarize(n_cases = sum(Eixample_PM10_day_2018$mean >= 50))

## # A tibble: 1 x 1
##   n_cases
##     <int>
## 1      16

There is no year with more than 35 cases with concentrations of PM10 higher than 50 µg/m3. Year 2015 had 33 cases but it’s still complying the regulations.

I am now going to analyze the outliers with extremely high PM10 values.

outliers <- Eixample_PM10_day[order(Eixample_PM10_day$max, decreasing = TRUE),]
outliers

## # A tibble: 1,827 x 5
##    dt                    min   max  mean median
##    <dttm>              <dbl> <dbl> <dbl>  <dbl>
##  1 2017-06-24 23:00:00    20  1167 303.    54  
##  2 2015-06-07 23:00:00    21   536  66.7   27  
##  3 2015-10-03 23:00:00     1   509  60.5   28.2
##  4 2014-06-24 23:00:00     9   471 144.    56  
##  5 2016-06-24 23:00:00    15   458 125.    43  
##  6 2018-06-24 23:00:00    18   431 126.    41  
##  7 2015-10-04 23:00:00    14   405 109.    28  
##  8 2015-06-24 23:00:00    19   314  91.3   37  
##  9 2018-06-23 23:00:00    13   312  43.1   25.8
## 10 2014-11-30 23:00:00     8   269  99.4   86.4
## # … with 1,817 more rows
…
